hp;lahp;ahp_13;ahp_14;ahp_15;ahp_23;ahp_27;ahp_0;laahp_13;laahp_14;laahp_15;laahp_23;laahp_27;laahp_0;lws;eager;dm;dmda;random
7.29941;7.17587;7.31417;7.28269;7.24386;7.27914;7.18832;7.3484;7.27599;7.12405;7.26405;7.26235;7.27359;7.29484;7.17072;9.86402;7.17145;20.7639;49.2593
7.34419;7.17236;7.19134;7.26329;7.28494;7.17322;7.16602;7.26094;7.26341;7.14725;7.28132;7.28025;7.2389;7.29279;87.2877;7.2181;20.7211;20.7909;85.2107
7.27343;7.1112;7.15082;7.31839;7.11768;7.30486;7.134;7.22098;7.29273;7.15767;7.26458;7.25302;7.2675;7.27536;7.16108;9.13904;20.751;7.18256;70.9987
7.25025;7.13589;7.27681;7.24184;7.27001;7.02348;7.31277;7.18745;7.2789;7.25322;7.27004;7.2691;7.27222;7.26246;74.9799;9.87957;7.16308;7.22867;85.5578
7.1626;7.19209;7.25103;7.28349;7.19541;7.33091;7.25629;7.25772;7.26719;7.26852;7.288;7.26644;7.26342;7.28569;81.0227;9.78385;68.6273;79.6974;83.5872
7.24545;7.12257;7.13536;7.27629;7.23468;7.21032;7.2767;7.22693;7.27681;7.14409;7.28592;7.27082;7.27639;7.26963;7.16292;9.64183;80.6531;77.4086;46.3521
7.21011;7.15086;7.27037;7.31457;7.16543;7.1175;7.25773;7.21453;7.29969;7.11689;7.27283;7.26963;7.27927;7.2751;7.15941;9.79073;78.4176;51.2263;77.7968
7.28053;7.14985;7.26185;7.29976;7.24994;7.16229;7.16194;7.24106;7.25854;7.14439;7.29071;7.29137;7.29887;7.27338;7.17643;9.7964;13.747;7.27362;80.9327
7.38397;7.16114;7.28424;7.25852;7.26742;7.19328;7.15424;7.36582;7.3008;7.1426;7.28447;7.28383;7.31125;7.53767;84.6641;9.96524;7.21557;7.3038;75.3066
7.25913;7.13867;7.29473;7.28572;7.25444;7.28192;7.29171;7.35641;7.27988;7.14058;7.28154;7.29158;7.27272;7.25761;7.17595;9.8687;7.09342;7.23748;86.7964
7.19426;7.14707;7.24039;7.29913;7.2825;7.31308;7.09313;7.23119;7.28716;7.13701;7.28254;7.25615;7.28261;7.29928;7.17443;10.8471;7.12973;7.23415;58.4657
7.31843;7.14205;7.27195;7.27014;7.29829;7.26662;7.28679;7.2084;7.27224;7.13488;7.26954;7.279;7.28331;7.26904;7.17275;9.58148;7.16623;7.26152;59.4996
7.2869;7.16508;7.25104;7.35064;7.28917;7.28009;7.3351;7.23008;7.28631;7.1069;7.35641;7.27569;7.28315;7.29907;65.7241;9.77247;7.12823;7.20979;68.6635
7.35535;7.17159;7.23374;7.28165;7.2011;7.22733;7.30036;7.2894;7.30994;7.10623;7.26625;7.3042;7.28146;7.28709;14.17;9.84719;7.18356;7.4822;76.4229
7.26582;7.16862;7.27789;7.16978;7.1627;7.20774;7.16634;7.21877;7.28192;7.15066;7.29682;7.28126;7.26488;7.28176;7.16892;7.1962;7.12835;7.15239;70.8669
7.26333;7.16618;7.23155;7.29329;7.1826;7.14803;7.35012;7.2564;7.24577;7.14085;7.27681;7.28418;7.29084;7.25404;13.0201;9.09859;333.279;331.572;72.8594
7.31499;7.14149;7.3371;7.34488;7.28086;7.27315;7.133;7.15404;7.28761;7.16553;7.27016;7.2939;7.27891;7.31193;7.14956;9.93004;332.887;328.05;97.2915
7.33417;7.15638;7.14967;7.2303;7.23857;7.24906;7.31464;7.25615;7.27654;7.16399;7.27426;7.2829;7.30041;7.28029;7.18087;9.11294;359.944;327.86;74.2697
7.31399;7.59835;7.23391;7.29519;7.13776;7.29939;7.19654;7.32488;7.2844;7.17745;7.2613;7.29091;7.27992;7.27994;7.18159;9.95494;335.699;328.619;64.4845
7.31333;7.15985;7.22156;7.27979;7.18103;7.213;7.16776;7.17458;7.27512;7.23982;7.27414;7.29165;7.27319;7.2654;7.1883;9.80353;316.167;375.92;77.3796
7.23362;7.1719;7.22001;7.28145;7.23505;7.2942;7.21383;7.19923;7.31473;7.1588;7.28773;7.275;7.27354;7.28139;7.18123;9.56501;307.829;7.37581;91.3821
7.2797;7.14765;7.22002;7.18121;7.28958;7.1748;7.32124;7.25019;7.27639;7.17902;7.27682;7.28292;7.28668;7.28257;7.16894;7.24876;7.17599;7.11527;64.9336
7.23051;7.18599;7.3196;7.26654;7.18122;7.22556;7.30964;7.33144;7.26292;7.13728;7.2883;7.27792;7.25928;7.27816;7.19202;10.188;7.14052;7.15349;75.6071
7.335;7.151;7.28356;7.24737;7.16105;7.29846;7.29573;7.22715;7.28457;7.15133;7.28795;7.28713;7.2777;7.30135;7.17773;7.22522;7.10754;7.08339;77.7609
7.24991;7.16831;7.19323;7.27632;7.11079;7.25459;7.24922;7.17044;7.30634;7.16497;7.29153;7.27905;7.26144;7.28223;7.18008;10.2521;7.57193;7.11144;73.5419
7.31604;7.15733;7.18598;7.29545;7.24297;7.2692;7.2591;7.28014;7.29954;7.11361;7.28166;7.27008;7.27567;7.28977;7.18391;7.25402;7.16731;7.12405;63.6159
7.2951;7.14873;7.18059;7.33562;7.25111;7.23477;7.25612;7.20787;7.29052;7.13425;7.28429;7.28233;7.28978;7.2834;76.2554;9.55431;7.13189;7.13103;74.8042
7.18703;7.14828;7.3078;7.2617;7.17653;7.18858;7.20518;7.30033;7.28964;7.14302;7.29603;7.30238;7.29318;7.58835;7.19536;9.97;7.19569;7.137;71.3186
7.20081;7.14122;7.20586;7.19092;7.24548;7.33356;7.19264;7.21653;7.29002;7.15286;7.28221;7.26948;7.27135;7.27763;7.17294;9.11189;7.23391;7.12669;55.2274
7.29033;7.21297;7.25956;7.26337;7.27922;7.31383;7.25539;7.26184;7.28034;7.16185;7.28674;7.28582;7.2686;7.27294;7.18162;9.62965;7.13909;7.16294;80.2505
7.27042;7.16118;7.11949;7.28455;7.13834;7.22779;7.19813;7.19981;7.29875;7.13385;7.28241;7.30461;7.29261;7.28486;55.3698;7.475;7.17885;7.1097;64.1446
7.28229;7.1735;7.21734;7.29687;7.20231;7.28918;7.20984;7.28676;7.28311;7.13919;7.27889;7.28467;7.28116;7.26847;7.19439;7.23816;7.19601;7.23891;63.6368
