hp;lahp;ahp_13;ahp_14;ahp_15;ahp_23;ahp_27;ahp_0;laahp_13;laahp_14;laahp_15;laahp_23;laahp_27;laahp_0;lws;eager;dm;dmda;random
165.004;152.301;1.60724;1.61166;1.61243;1.61502;1.60997;1.61228;1.61201;1.61429;1.61837;1.60478;17.1088;17.1407;1.63121;190.687;1.59918;1.6619;220.714
132.335;159.712;1.60043;1.61086;1.60672;1.61704;1.59208;1.60915;1.61207;1.62448;1.61315;1.6122;1.72375;1.6164;1.62119;1.6104;2.01115;1.6419;145.399
1.60993;147.24;1.61331;1.61063;1.61554;1.61375;1.61212;1.61392;1.61727;1.61414;1.60892;1.60761;1.61088;1.60261;1.62351;1.59957;2.33902;1.65415;92.7805
1.65833;147.953;1.61226;1.61032;1.61088;1.60906;1.61087;1.60896;1.61486;1.61108;1.62076;1.61033;1.61909;1.61147;1.62202;165.53;1.61454;1.63969;99.7167
1.60286;169.926;1.61484;1.61288;1.60042;1.63614;1.61022;1.61383;1.61942;1.61269;1.60777;1.63486;1.60417;1.60095;1.61936;170.053;276.019;295.957;145.844
184.583;1.71207;1.60355;1.61368;1.60946;1.60627;1.60923;1.63124;1.61822;1.61543;1.71732;1.60844;1.61601;1.61955;1.62565;250.478;304.675;374.387;95.3946
137.07;168.333;1.61148;1.61361;1.60961;1.60268;1.61643;1.60032;1.60779;1.61391;1.61453;1.61132;1.62071;1.61023;1.62667;230.542;369.702;400.28;85.2393
175.314;117.979;1.61132;1.61046;1.61164;1.61455;1.61368;1.60951;1.60902;1.60393;1.61723;1.61023;1.60651;1.61568;1.62344;1.61606;402.57;614.517;146.458
162.114;140.856;1.6108;1.6106;1.61319;1.61106;1.61815;1.61703;1.61075;1.6133;1.60758;1.61334;1.62132;1.60883;1.6213;202.145;648.661;724.136;102.527
177.263;125.008;1.61096;1.60958;1.61112;1.6211;1.60437;1.61407;1.61688;1.60995;1.60192;1.60215;1.61265;1.64849;1.62266;1.60456;926.01;2.11503;92.9003
195.735;192.934;1.61592;1.61089;1.61062;1.61405;1.6196;1.6111;1.61397;1.61471;1.62687;1.61679;1.60964;1.62815;1.62112;249.147;2.00363;2.05303;153.912
165.866;99.9598;1.61827;1.6154;1.6078;1.61063;1.61268;1.61308;1.60935;1.61193;1.61352;1.61366;1.61584;1.61972;1.62028;252.765;1.60478;1.61547;82.3553
147.015;138.421;1.61325;1.61294;1.62222;1.61299;1.61187;1.60984;1.60963;1.61147;1.60475;1.61987;1.61005;1.61617;1.62583;193.582;1.61105;1.60933;169.219
109.809;174.34;1.60996;1.61043;1.60945;1.61239;1.61216;1.61143;1.60848;1.60317;1.60774;1.61878;1.60486;1.61412;1.62121;219.884;1.61229;1.60518;52.2354
134.609;136.876;1.60704;1.61128;1.61539;1.60734;1.61166;1.61036;1.61345;1.61293;1.62343;1.62536;1.61885;1.61898;1.73089;222.405;1.61269;1.60156;136.567
108.405;149.871;1.60967;1.60954;1.6091;1.61601;1.62952;1.61117;1.63573;1.60912;1.61054;1.6108;1.615;1.62256;1.62047;162.859;1.61457;2.01856;114.735
160.161;1.61226;1.61226;1.60884;1.61995;1.62619;1.61021;1.61404;1.61535;1.6074;1.61198;1.6078;1.60937;1.62402;1.62912;184.626;1.62025;2.03671;234.125
140.747;169.569;1.60902;1.6214;1.61181;1.61149;1.61611;1.61528;1.61558;1.60874;1.61366;1.62478;1.61892;1.60497;1.62924;1.60288;1.61501;1.62996;126.178
121.366;140.131;1.61047;1.60165;1.6136;1.61375;1.61014;1.6112;1.61788;1.60211;1.61067;1.60338;1.60863;1.61337;1.62266;185.622;1.59628;1.92138;86.5161
163.103;1.60632;1.60466;1.60971;1.61837;1.59878;1.61325;1.60866;1.61554;1.60345;1.61137;1.61327;1.61072;1.61285;1.62107;191.734;1.60088;1.61464;222.113
125.568;139.211;1.61038;1.61032;1.60996;1.61005;1.61142;1.71941;1.61743;1.61856;1.6163;1.61237;1.62056;1.61089;1.62426;201.572;2.01673;1.60884;109.198
152.42;1.60767;1.62529;1.61083;1.61857;1.61188;1.61452;1.61769;1.61469;1.62308;1.61007;1.60988;1.61786;1.61323;1.61954;193.417;1.60204;1.63897;103.676
119.51;169.506;1.61472;1.60428;1.61551;1.61765;1.60969;1.61227;1.61752;1.61093;1.61621;1.61278;1.61409;1.6182;1.62476;232.56;1.60787;1.59477;164.772
168.922;164.718;1.60775;1.6103;1.6139;1.61031;1.61077;1.61387;1.61574;1.60277;1.61438;1.60826;1.62449;1.61649;1.6306;234.454;2.03649;1.6028;118.179
1.62009;1.60225;1.60884;1.61312;1.59788;1.61544;1.61566;1.61895;1.61155;1.61488;1.61391;1.61213;1.61088;1.61399;1.62614;156.185;1.59594;1.60104;95.7135
128.53;195.17;1.61067;1.60589;1.61059;1.6121;1.65438;1.61137;1.60238;1.61327;1.61079;1.6243;1.61798;1.61468;1.62514;1.60037;1.6039;1.60769;109.283
153.56;178.836;1.61253;1.6094;1.61506;1.78088;1.61071;1.60051;1.61012;1.60536;1.61474;1.61274;1.61603;1.62425;1.6279;202.166;1.6023;2.05104;145.861
125.759;1.60639;1.61057;1.60952;1.60806;1.61227;1.60869;1.61736;1.60886;1.61404;1.61937;1.60971;1.60912;1.61092;1.62158;199.175;1.60115;1.61151;18.4044
146.481;1.60622;1.59994;1.61933;1.59918;1.60841;1.60866;1.62946;1.60873;1.61161;1.61114;1.60473;1.6102;1.61885;1.62063;181.525;2.35832;1.9223;121.796
218.742;1.61852;1.60989;1.60863;1.60363;1.61404;1.61294;1.6166;1.61601;1.61069;1.61078;1.61567;1.61599;1.61403;1.62338;212.812;1.63139;1.60033;162.434
161.377;155.067;1.61436;1.60916;1.62107;1.60801;1.61459;1.6205;1.60812;1.62095;1.61413;1.60159;1.61564;1.61839;1.61853;259.435;1.63852;1.6137;96.8573
153.046;166.622;1.60934;1.61116;1.61414;1.61223;1.60906;1.61524;1.60783;1.60996;1.6157;1.6131;1.60928;1.61494;1.62816;291.668;1.59189;1.6053;93.6182
