hp;lahp;ahp_13;ahp_14;ahp_15;ahp_23;ahp_27;ahp_0;laahp_13;laahp_14;laahp_15;laahp_23;laahp_27;laahp_0;lws;eager;dm;dmda;dmdas;random
5.835468e+00;5.377905e+00;5.924594e+00;5.964558e+00;6.068057e+00;6.007391e+00;6.031667e+00;5.983069e+00;5.493769e+00;5.514850e+00;5.491360e+00;5.457782e+00;5.497040e+00;5.511859e+00;5.236685e+00;;;5.183865e+00;5.119895e+00;6.352789e+00
5.893872e+00;5.313104e+00;5.941489e+00;5.938608e+00;6.007862e+00;6.000780e+00;5.961216e+00;5.951293e+00;5.457626e+00;5.580147e+00;5.523139e+00;5.588839e+00;5.510868e+00;5.529309e+00;5.384235e+00;;;5.202273e+00;5.131434e+00;6.137891e+00
5.917910e+00;5.404853e+00;6.008675e+00;5.960956e+00;5.913960e+00;6.005544e+00;6.022317e+00;5.951510e+00;5.527322e+00;5.510220e+00;5.495744e+00;5.458165e+00;5.465280e+00;5.557501e+00;5.389299e+00;;;5.181515e+00;5.144502e+00;6.432520e+00
5.912261e+00;5.289085e+00;6.066093e+00;6.024662e+00;6.004496e+00;6.003409e+00;5.969888e+00;6.001522e+00;5.452170e+00;5.437329e+00;5.489266e+00;5.407538e+00;5.449033e+00;5.456046e+00;5.377159e+00;;;5.186076e+00;5.141938e+00;6.263023e+00
5.842372e+00;5.357564e+00;6.051734e+00;6.028343e+00;6.055071e+00;5.970207e+00;6.017829e+00;6.102091e+00;5.434250e+00;5.512526e+00;5.511592e+00;5.493777e+00;5.503761e+00;5.592825e+00;5.303292e+00;;;5.173655e+00;5.147695e+00;6.303832e+00
5.884528e+00;5.385493e+00;5.968438e+00;5.999728e+00;5.975935e+00;6.029254e+00;6.117508e+00;5.994619e+00;5.516821e+00;5.391744e+00;5.492936e+00;5.477210e+00;5.518988e+00;5.503857e+00;5.189122e+00;;;5.176104e+00;5.136602e+00;6.272760e+00
5.878734e+00;5.379188e+00;5.947547e+00;5.984132e+00;5.920182e+00;5.939898e+00;5.944572e+00;6.016125e+00;5.509969e+00;5.510866e+00;5.492663e+00;5.522103e+00;5.463904e+00;5.533877e+00;5.226544e+00;;;5.173713e+00;5.121152e+00;6.259890e+00
5.783438e+00;5.430924e+00;5.966554e+00;5.978315e+00;6.020221e+00;6.035144e+00;5.891520e+00;6.012077e+00;5.537169e+00;5.479649e+00;5.606865e+00;5.544421e+00;5.493216e+00;5.495104e+00;5.240965e+00;;;5.190012e+00;5.130179e+00;6.322816e+00
5.800584e+00;5.426085e+00;6.007341e+00;6.032866e+00;6.024705e+00;6.018784e+00;5.972454e+00;5.989050e+00;5.472997e+00;5.472056e+00;5.539834e+00;5.539355e+00;5.472308e+00;5.468815e+00;5.252732e+00;;;5.174318e+00;5.129097e+00;6.370028e+00
5.817255e+00;5.326672e+00;6.001330e+00;6.033475e+00;5.970871e+00;6.013220e+00;6.070273e+00;6.004800e+00;5.531803e+00;5.466719e+00;5.482112e+00;5.507324e+00;5.525824e+00;5.461906e+00;5.282996e+00;;;5.185490e+00;5.159099e+00;6.330411e+00
5.879305e+00;5.404856e+00;6.010496e+00;6.001716e+00;6.031878e+00;6.140389e+00;5.939245e+00;6.027200e+00;5.558312e+00;5.489491e+00;5.492774e+00;5.491817e+00;5.543716e+00;5.468116e+00;5.254664e+00;;;5.188445e+00;5.133173e+00;6.248023e+00
5.855420e+00;5.338200e+00;5.939046e+00;6.037982e+00;6.076908e+00;6.034481e+00;5.978531e+00;6.028542e+00;5.482975e+00;5.525806e+00;5.522363e+00;5.506162e+00;5.518527e+00;5.488360e+00;5.255760e+00;;;5.193462e+00;5.132016e+00;6.344460e+00
5.847784e+00;5.386913e+00;6.058281e+00;6.032906e+00;5.928419e+00;6.004885e+00;5.994264e+00;5.999515e+00;5.570179e+00;5.449444e+00;5.497590e+00;5.448933e+00;5.544926e+00;5.525717e+00;5.258533e+00;;;5.193264e+00;5.119720e+00;6.275744e+00
5.905086e+00;5.398458e+00;5.986293e+00;6.058123e+00;5.921426e+00;6.042721e+00;6.068636e+00;5.994998e+00;5.491561e+00;5.641379e+00;5.545869e+00;5.517546e+00;5.540735e+00;5.510988e+00;5.219914e+00;;;5.194665e+00;5.136669e+00;6.250678e+00
5.863815e+00;5.374622e+00;6.001086e+00;6.031450e+00;6.100133e+00;5.952082e+00;5.912229e+00;6.056768e+00;5.483623e+00;5.444160e+00;5.464235e+00;5.410074e+00;5.533899e+00;5.486519e+00;5.274309e+00;;;5.197033e+00;5.137923e+00;6.354535e+00
5.879901e+00;5.409286e+00;6.047870e+00;6.020529e+00;6.003958e+00;5.996433e+00;6.026386e+00;6.001375e+00;5.511464e+00;5.463857e+00;5.475807e+00;5.414600e+00;5.429670e+00;5.561927e+00;5.257877e+00;;;5.212852e+00;5.145279e+00;6.314072e+00
5.857403e+00;5.368001e+00;5.982040e+00;6.008365e+00;6.060437e+00;6.078727e+00;6.003605e+00;6.054487e+00;5.468744e+00;5.439063e+00;5.525880e+00;5.474677e+00;5.471655e+00;5.559253e+00;5.417925e+00;;;5.196184e+00;5.139333e+00;6.315975e+00
5.881295e+00;5.285710e+00;5.965744e+00;5.915380e+00;6.050491e+00;5.962451e+00;5.954345e+00;6.103179e+00;5.558377e+00;5.499612e+00;5.433462e+00;5.438575e+00;5.446627e+00;5.405345e+00;5.249721e+00;;;5.205425e+00;5.150734e+00;6.385189e+00
5.846895e+00;5.331590e+00;6.051673e+00;6.000484e+00;6.048822e+00;5.965875e+00;5.991144e+00;6.017444e+00;5.519487e+00;5.495639e+00;5.559891e+00;5.522849e+00;5.500015e+00;5.525884e+00;5.256181e+00;;;5.179135e+00;5.138107e+00;6.204649e+00
5.870381e+00;5.466165e+00;5.979850e+00;5.993833e+00;5.995776e+00;6.102099e+00;6.048081e+00;5.927607e+00;5.447092e+00;5.434696e+00;5.433682e+00;5.425679e+00;5.511505e+00;5.492608e+00;5.194885e+00;;;5.208111e+00;5.129118e+00;6.256853e+00
5.863998e+00;5.457703e+00;6.012506e+00;5.939587e+00;5.968887e+00;5.971225e+00;6.054078e+00;5.974245e+00;5.430046e+00;5.502795e+00;5.485960e+00;5.515760e+00;5.559559e+00;5.482395e+00;5.182686e+00;;;5.194112e+00;5.142534e+00;6.301912e+00
5.979916e+00;5.394744e+00;5.907094e+00;6.033308e+00;5.943655e+00;5.981788e+00;5.996254e+00;6.063276e+00;5.553249e+00;5.498850e+00;5.480898e+00;5.527310e+00;5.482882e+00;5.515451e+00;5.289655e+00;;;5.206518e+00;5.128416e+00;6.305493e+00
5.860571e+00;5.351822e+00;5.909526e+00;5.998436e+00;5.977225e+00;5.939386e+00;6.062935e+00;5.958331e+00;5.467434e+00;5.449971e+00;5.515884e+00;5.489320e+00;5.541155e+00;5.423005e+00;5.300172e+00;;;5.212365e+00;5.123134e+00;6.296744e+00
5.858492e+00;5.395512e+00;5.953240e+00;6.094518e+00;5.989028e+00;6.033511e+00;6.049138e+00;5.945838e+00;5.461292e+00;5.475534e+00;5.445750e+00;5.480699e+00;5.510700e+00;5.558270e+00;5.313294e+00;;;5.199230e+00;5.131556e+00;6.338300e+00
5.942353e+00;5.329078e+00;5.928383e+00;6.052572e+00;6.105583e+00;6.154140e+00;6.066014e+00;6.040816e+00;5.580634e+00;5.513532e+00;5.451697e+00;5.446283e+00;5.495300e+00;5.497213e+00;5.381383e+00;;;5.202634e+00;5.132793e+00;6.348950e+00
5.914427e+00;5.357330e+00;6.025250e+00;6.063185e+00;5.941415e+00;6.012332e+00;6.072454e+00;5.968012e+00;5.486466e+00;5.495421e+00;5.497130e+00;5.496510e+00;5.400180e+00;5.424326e+00;5.245983e+00;;;5.188931e+00;5.122330e+00;6.364252e+00
5.832987e+00;5.380019e+00;5.990378e+00;5.952928e+00;6.014171e+00;5.958671e+00;6.021397e+00;5.977341e+00;5.549371e+00;5.492478e+00;5.482466e+00;5.451132e+00;5.496082e+00;5.478723e+00;5.316639e+00;;;5.200908e+00;5.134436e+00;6.348473e+00
5.819753e+00;5.409349e+00;6.017719e+00;5.937920e+00;5.991489e+00;6.125994e+00;5.960828e+00;5.975412e+00;5.509242e+00;5.435382e+00;5.456195e+00;5.422512e+00;5.434266e+00;5.512605e+00;5.224306e+00;;;5.206249e+00;5.134598e+00;6.334712e+00
5.909180e+00;5.375834e+00;6.010070e+00;6.019396e+00;6.051389e+00;5.932925e+00;5.941179e+00;5.991287e+00;5.517427e+00;5.440397e+00;5.531636e+00;5.429053e+00;5.430012e+00;5.431411e+00;5.321056e+00;;;5.205807e+00;5.160674e+00;6.290829e+00
5.914553e+00;5.355274e+00;5.983883e+00;6.017176e+00;6.047046e+00;6.000220e+00;6.060417e+00;5.969703e+00;5.554614e+00;5.596517e+00;5.507292e+00;5.545687e+00;5.492128e+00;5.431724e+00;5.212551e+00;;;5.206376e+00;5.126700e+00;6.309251e+00
5.876231e+00;5.442164e+00;5.953761e+00;6.035878e+00;5.903508e+00;6.028278e+00;5.878709e+00;6.024662e+00;5.474477e+00;5.522021e+00;5.546530e+00;5.484669e+00;5.528523e+00;5.413686e+00;5.484584e+00;;;5.202058e+00;5.139430e+00;6.371130e+00
5.924953e+00;5.386811e+00;5.922531e+00;6.012543e+00;6.012104e+00;5.984995e+00;6.044297e+00;6.072410e+00;5.524115e+00;5.448064e+00;5.421026e+00;5.439746e+00;5.470849e+00;5.478455e+00;5.382086e+00;;;5.190036e+00;5.142657e+00;6.300088e+00
