hp;lahp;ahp_13;ahp_14;ahp_15;ahp_23;ahp_27;ahp_0;laahp_13;laahp_14;laahp_15;laahp_23;laahp_27;laahp_0;lws;eager;dm;dmda;dmdas
2.644477e+01;2.633297e+01;3.871581e+01;3.909869e+01;3.927593e+01;3.890554e+01;3.974833e+01;3.975680e+01;3.891371e+01;3.883864e+01;3.891150e+01;3.896156e+01;3.905263e+01;4.023148e+01;2.417012e+01;2.591624e+01;2.876573e+01;2.316794e+01;2.880075e+01
2.578437e+01;2.675414e+01;3.889476e+01;3.917052e+01;3.896084e+01;3.884948e+01;3.893621e+01;3.883749e+01;3.869931e+01;3.891811e+01;3.902193e+01;3.867871e+01;3.869251e+01;3.916536e+01;2.372344e+01;2.642013e+01;2.997398e+01;2.247521e+01;3.073451e+01
2.669841e+01;2.763780e+01;3.909197e+01;3.909620e+01;3.914577e+01;3.879029e+01;3.871234e+01;3.904079e+01;3.910207e+01;3.918933e+01;3.832254e+01;3.910243e+01;3.892070e+01;3.924530e+01;2.301778e+01;2.633979e+01;2.849594e+01;2.480892e+01;2.942352e+01
2.553202e+01;2.746675e+01;3.825492e+01;3.862250e+01;3.885997e+01;3.826727e+01;3.883060e+01;3.850135e+01;3.868723e+01;3.888253e+01;3.883264e+01;3.806822e+01;3.838308e+01;3.878758e+01;2.282468e+01;2.705298e+01;2.669882e+01;2.550264e+01;3.032730e+01
2.523429e+01;2.766318e+01;3.868773e+01;3.837661e+01;3.827892e+01;3.808334e+01;3.831161e+01;3.835632e+01;3.840452e+01;3.862570e+01;3.870716e+01;3.867086e+01;3.812457e+01;3.854797e+01;2.301478e+01;2.690882e+01;2.300043e+01;2.238380e+01;2.236580e+01
2.537179e+01;2.739439e+01;3.832148e+01;3.830315e+01;3.837071e+01;3.860397e+01;3.867420e+01;3.923576e+01;3.892076e+01;3.881789e+01;3.921053e+01;3.899046e+01;3.922793e+01;3.897295e+01;2.361996e+01;2.665207e+01;2.768655e+01;3.002455e+01;2.231143e+01
2.627058e+01;2.773529e+01;3.869089e+01;3.833766e+01;3.846632e+01;3.857459e+01;3.831139e+01;3.865125e+01;3.869064e+01;3.862709e+01;3.850604e+01;3.845955e+01;3.853774e+01;3.914931e+01;2.288863e+01;2.678899e+01;2.658468e+01;2.749934e+01;2.232303e+01
2.525920e+01;2.615557e+01;3.868068e+01;3.850087e+01;3.852895e+01;3.860513e+01;3.826497e+01;3.915216e+01;3.842792e+01;3.857006e+01;3.925841e+01;3.830982e+01;3.860463e+01;3.882701e+01;2.397904e+01;2.575867e+01;2.627977e+01;2.789668e+01;2.327567e+01
2.569069e+01;2.774990e+01;3.860835e+01;3.844645e+01;3.852064e+01;3.838908e+01;3.836826e+01;3.933398e+01;3.893470e+01;3.943270e+01;3.854872e+01;3.824847e+01;3.852277e+01;3.893572e+01;2.318716e+01;2.662681e+01;2.790891e+01;2.176342e+01;2.966199e+01
2.506883e+01;2.756553e+01;3.850928e+01;3.827866e+01;3.865783e+01;3.852443e+01;3.870157e+01;3.902885e+01;3.906235e+01;3.900290e+01;3.878907e+01;3.824330e+01;3.870599e+01;3.906188e+01;2.341111e+01;2.793986e+01;2.330134e+01;2.173292e+01;2.156866e+01
2.553974e+01;2.682047e+01;3.837759e+01;3.863258e+01;3.897825e+01;3.884904e+01;3.851518e+01;3.905405e+01;3.854451e+01;3.876888e+01;3.911475e+01;3.852883e+01;3.856287e+01;3.924124e+01;2.263760e+01;2.754934e+01;2.529770e+01;2.252765e+01;2.808412e+01
2.693200e+01;2.767629e+01;3.986684e+01;3.797579e+01;4.044298e+01;4.438026e+01;3.938895e+01;3.891376e+01;3.846886e+01;3.860942e+01;3.913863e+01;3.843918e+01;3.856807e+01;3.899648e+01;2.323663e+01;2.603065e+01;3.248325e+01;2.289216e+01;2.215255e+01
2.567521e+01;2.772660e+01;3.987525e+01;3.946127e+01;3.892669e+01;3.875099e+01;3.875759e+01;3.877662e+01;3.854318e+01;3.876695e+01;3.858297e+01;3.893545e+01;3.866593e+01;3.908477e+01;2.422456e+01;2.611032e+01;2.245570e+01;2.925598e+01;2.146491e+01
2.628702e+01;2.745656e+01;3.834315e+01;3.841688e+01;3.870057e+01;3.784340e+01;3.832500e+01;3.901984e+01;3.857739e+01;3.912641e+01;3.886342e+01;3.845189e+01;3.816885e+01;3.870004e+01;2.343086e+01;2.661535e+01;2.587848e+01;2.190404e+01;2.234550e+01
2.572508e+01;2.663643e+01;3.821220e+01;3.871908e+01;3.868262e+01;3.884238e+01;3.826094e+01;3.835139e+01;3.850882e+01;3.847039e+01;3.873720e+01;3.841197e+01;3.817469e+01;3.884528e+01;2.315631e+01;2.676597e+01;2.659859e+01;3.321599e+01;2.997475e+01
2.536972e+01;2.639473e+01;3.832118e+01;3.834725e+01;3.851085e+01;3.873816e+01;3.880757e+01;3.951871e+01;3.858047e+01;3.844995e+01;3.891568e+01;3.876645e+01;3.892768e+01;3.916636e+01;2.279526e+01;2.753209e+01;2.738710e+01;2.821799e+01;2.162859e+01
2.689014e+01;2.602771e+01;3.813152e+01;3.910841e+01;3.884554e+01;3.888668e+01;3.838782e+01;3.859135e+01;3.864513e+01;3.876730e+01;3.855144e+01;3.826185e+01;3.859164e+01;3.886692e+01;2.371772e+01;2.694912e+01;2.831524e+01;2.250491e+01;3.059365e+01
2.626757e+01;2.768153e+01;3.938870e+01;3.855788e+01;3.842689e+01;3.889822e+01;3.838693e+01;3.904339e+01;3.885888e+01;3.874880e+01;3.890295e+01;3.873017e+01;3.837146e+01;3.989718e+01;2.415681e+01;2.665156e+01;2.709100e+01;2.228724e+01;2.750353e+01
2.549374e+01;2.664897e+01;3.832826e+01;3.878840e+01;3.867554e+01;3.883860e+01;3.856624e+01;3.925835e+01;3.891922e+01;3.914541e+01;3.930282e+01;3.882166e+01;3.851705e+01;3.898152e+01;2.328528e+01;2.562020e+01;2.223932e+01;2.821068e+01;2.293395e+01
2.648876e+01;2.628013e+01;3.892126e+01;3.844790e+01;3.845097e+01;3.890089e+01;3.867029e+01;3.878729e+01;3.882144e+01;3.878922e+01;3.901295e+01;3.869177e+01;3.856864e+01;3.908143e+01;2.313070e+01;2.676799e+01;3.020642e+01;2.911969e+01;2.556217e+01
2.604441e+01;2.624723e+01;3.865283e+01;3.890279e+01;3.930294e+01;3.884423e+01;3.924147e+01;3.923653e+01;3.882686e+01;3.887787e+01;3.917266e+01;3.854802e+01;3.859114e+01;3.938921e+01;2.392164e+01;2.723601e+01;2.328613e+01;2.699004e+01;2.242250e+01
2.638825e+01;2.650803e+01;3.863184e+01;3.867402e+01;3.893336e+01;3.884357e+01;3.843514e+01;3.899891e+01;3.876640e+01;3.884706e+01;3.963000e+01;3.852783e+01;3.899358e+01;3.927762e+01;2.385318e+01;2.643363e+01;2.258874e+01;2.686600e+01;2.176565e+01
2.580470e+01;2.574497e+01;3.882439e+01;3.867542e+01;3.867745e+01;3.854376e+01;3.828892e+01;3.889956e+01;3.889892e+01;3.911305e+01;3.912148e+01;3.860995e+01;3.858452e+01;3.873582e+01;2.358527e+01;2.803573e+01;2.731075e+01;2.205854e+01;2.183992e+01
2.704778e+01;2.659314e+01;3.886397e+01;3.857228e+01;3.873732e+01;3.916552e+01;3.844974e+01;3.900503e+01;3.873816e+01;3.899961e+01;3.865635e+01;3.852754e+01;3.901802e+01;3.947979e+01;2.376702e+01;2.606205e+01;2.292902e+01;3.161438e+01;2.180714e+01
2.588713e+01;2.761956e+01;3.856972e+01;3.830935e+01;3.902058e+01;3.858218e+01;3.855948e+01;3.920908e+01;3.840219e+01;3.987642e+01;3.905787e+01;3.877251e+01;3.843848e+01;3.878318e+01;2.506160e+01;2.658079e+01;2.470266e+01;2.316192e+01;2.282349e+01
2.552983e+01;2.721106e+01;3.884094e+01;3.908729e+01;3.856400e+01;3.866735e+01;3.868647e+01;3.966630e+01;3.894486e+01;3.913079e+01;3.905406e+01;3.835495e+01;3.854636e+01;3.932466e+01;2.289672e+01;2.609163e+01;2.606318e+01;2.234948e+01;2.535440e+01
2.557340e+01;2.569493e+01;3.833157e+01;3.864279e+01;3.899202e+01;3.863322e+01;3.851639e+01;3.861200e+01;3.888488e+01;3.864187e+01;3.903211e+01;3.833747e+01;3.856609e+01;3.930051e+01;2.450434e+01;2.694693e+01;2.603787e+01;2.654898e+01;2.509295e+01
2.600922e+01;2.553292e+01;3.849000e+01;3.835709e+01;3.932909e+01;3.851572e+01;3.856902e+01;3.904945e+01;3.871313e+01;3.864969e+01;3.863186e+01;3.896467e+01;3.883233e+01;3.940539e+01;2.291019e+01;2.592293e+01;3.070005e+01;2.243248e+01;3.011638e+01
2.720131e+01;2.707300e+01;3.806120e+01;3.896293e+01;3.911146e+01;4.119133e+01;3.857752e+01;3.911206e+01;3.865556e+01;3.853654e+01;3.897581e+01;3.843451e+01;3.892471e+01;3.929787e+01;2.275000e+01;2.578136e+01;2.228547e+01;2.241960e+01;2.300079e+01
2.649091e+01;2.712379e+01;3.839609e+01;3.891732e+01;3.831209e+01;3.862390e+01;3.799265e+01;3.876026e+01;3.881211e+01;3.845481e+01;3.846170e+01;3.855020e+01;3.836898e+01;3.947041e+01;2.293895e+01;2.606561e+01;2.170957e+01;2.857311e+01;2.250727e+01
2.547987e+01;2.706544e+01;3.889524e+01;3.876005e+01;3.876918e+01;3.840979e+01;3.819135e+01;3.923157e+01;3.867336e+01;3.852444e+01;3.863671e+01;3.842079e+01;3.875038e+01;3.908674e+01;2.297819e+01;2.740651e+01;2.892150e+01;2.201910e+01;2.194148e+01
2.746087e+01;2.785565e+01;3.796486e+01;3.843545e+01;3.883366e+01;3.842259e+01;3.780424e+01;3.860903e+01;3.902929e+01;3.882313e+01;3.860242e+01;3.854674e+01;3.848150e+01;3.900181e+01;2.364656e+01;2.672362e+01;2.607702e+01;2.771963e+01;3.021310e+01
