hp;lahp;ahp_13;ahp_14;ahp_15;ahp_23;ahp_27;ahp_0;laahp_13;laahp_14;laahp_15;laahp_23;laahp_27;laahp_0;eager;lws;dm;dmda
5.221000;5.239000;4.878000;4.772000;5.027000;5.020000;5.053000;5.059000;5.029000;5.073000;5.305000;4.943000;5.366000;4.870000;6.324000;6.211000;6.043000;6.835000
5.270000;5.334000;5.103000;4.922000;4.950000;4.994000;5.055000;5.105000;5.099000;4.853000;4.826000;4.883000;5.135000;5.066000;6.246000;6.332000;5.742000;5.932000
5.409000;5.248000;5.175000;4.891000;4.964000;4.935000;5.123000;5.233000;5.056000;5.042000;5.124000;4.781000;4.997000;5.047000;6.161000;6.180000;5.677000;6.120000
5.255000;5.281000;4.814000;5.038000;4.858000;5.111000;4.807000;4.875000;5.001000;4.934000;5.100000;5.193000;5.108000;5.184000;6.193000;6.323000;5.612000;5.722000
5.359000;5.274000;5.045000;4.848000;4.825000;4.889000;4.978000;4.944000;5.083000;4.933000;4.976000;5.103000;5.060000;4.851000;6.464000;6.415000;5.874000;6.471000
5.352000;5.481000;4.841000;5.149000;4.800000;5.021000;4.907000;4.802000;4.995000;5.060000;4.887000;5.043000;4.847000;4.841000;6.518000;6.273000;5.449000;6.230000
5.324000;5.268000;4.990000;4.893000;4.865000;4.898000;4.828000;5.164000;4.820000;5.107000;4.851000;4.941000;4.973000;4.924000;6.328000;6.545000;5.499000;6.311000
5.376000;5.326000;5.016000;4.878000;5.140000;4.891000;4.973000;5.106000;4.977000;4.992000;4.974000;5.079000;4.959000;5.104000;6.447000;6.580000;5.443000;6.278000
5.202000;5.253000;4.903000;5.103000;4.776000;4.858000;4.917000;4.963000;4.727000;5.175000;4.916000;4.889000;4.791000;5.061000;6.081000;6.351000;5.488000;6.351000
5.254000;5.261000;5.102000;5.070000;4.938000;5.061000;4.907000;4.983000;4.719000;5.058000;5.089000;5.110000;5.041000;5.039000;6.604000;6.218000;5.427000;6.457000
5.273000;5.255000;4.779000;4.905000;5.077000;5.157000;4.875000;4.957000;5.006000;5.090000;5.025000;5.073000;4.853000;5.254000;6.142000;6.489000;5.597000;6.518000
5.271000;5.295000;4.793000;5.090000;4.994000;4.958000;5.112000;5.117000;5.086000;4.822000;4.691000;5.054000;5.099000;4.969000;6.439000;6.365000;5.481000;6.490000
5.218000;5.258000;5.131000;5.073000;4.968000;5.052000;4.778000;4.790000;4.847000;4.811000;4.908000;5.007000;4.985000;5.027000;6.538000;6.111000;5.476000;6.614000
5.236000;5.245000;4.925000;4.856000;4.986000;5.061000;4.913000;4.937000;5.256000;4.891000;5.050000;5.053000;4.856000;4.957000;6.585000;6.186000;5.464000;6.471000
5.234000;5.189000;4.969000;4.924000;4.800000;5.089000;5.003000;4.986000;5.095000;4.946000;4.870000;5.021000;4.932000;4.970000;6.122000;6.613000;5.471000;6.482000
5.237000;5.192000;4.938000;5.027000;4.917000;4.705000;4.869000;4.804000;4.886000;4.984000;4.839000;5.233000;4.998000;5.122000;6.118000;6.403000;5.085000;6.509000
5.177000;5.203000;5.052000;5.136000;5.044000;4.878000;4.823000;4.993000;5.167000;5.235000;4.809000;4.786000;4.918000;5.069000;6.531000;6.467000;5.450000;6.482000
5.232000;5.230000;4.783000;5.151000;4.865000;4.914000;4.894000;4.892000;4.904000;5.020000;5.048000;4.946000;4.885000;5.070000;6.422000;6.498000;5.461000;6.535000
5.277000;5.162000;5.071000;4.832000;4.918000;4.863000;5.024000;5.156000;4.905000;4.810000;4.996000;5.308000;4.679000;4.762000;6.202000;6.572000;5.456000;6.470000
5.244000;5.224000;5.181000;5.159000;4.739000;4.756000;5.105000;5.032000;4.961000;5.021000;4.880000;5.129000;4.983000;4.920000;6.665000;6.282000;5.299000;6.572000
5.268000;5.172000;4.833000;5.250000;4.816000;4.697000;5.095000;4.969000;4.909000;5.019000;4.840000;5.102000;4.959000;5.182000;6.465000;6.280000;5.536000;6.433000
5.311000;5.193000;5.314000;4.891000;5.105000;4.962000;5.047000;4.952000;5.028000;4.886000;4.990000;5.131000;4.929000;4.994000;6.075000;6.181000;5.517000;6.419000
5.200000;5.224000;4.955000;5.019000;4.852000;5.008000;5.289000;5.107000;5.073000;4.979000;5.015000;4.762000;4.975000;5.172000;6.419000;6.204000;5.434000;6.461000
5.298000;5.278000;4.881000;4.972000;4.953000;4.946000;5.008000;4.941000;5.032000;5.189000;4.889000;4.935000;4.833000;4.814000;6.485000;6.333000;5.507000;6.551000
5.226000;5.116000;5.086000;5.148000;4.829000;5.033000;5.150000;4.826000;4.948000;5.080000;5.016000;4.907000;4.953000;4.816000;6.289000;6.584000;5.424000;6.535000
5.317000;5.234000;4.963000;5.304000;5.147000;5.033000;5.081000;5.093000;4.808000;5.009000;4.969000;5.057000;4.868000;5.164000;6.435000;6.531000;5.078000;6.400000
5.278000;5.237000;5.044000;4.976000;4.977000;5.657000;5.068000;4.889000;4.986000;5.070000;5.016000;4.871000;5.058000;5.149000;6.197000;6.373000;5.468000;6.568000
5.258000;5.244000;4.835000;5.016000;5.046000;5.167000;5.046000;4.932000;4.952000;4.902000;4.777000;5.176000;4.928000;5.054000;6.636000;6.419000;5.510000;6.108000
5.163000;5.267000;5.228000;5.020000;4.891000;4.903000;4.910000;4.933000;5.065000;4.938000;5.137000;4.934000;4.823000;5.109000;6.283000;6.194000;5.667000;6.455000
5.247000;5.241000;5.078000;4.925000;4.875000;4.991000;5.021000;4.932000;5.130000;4.915000;4.945000;4.979000;4.997000;5.064000;6.271000;6.350000;5.597000;6.250000
5.231000;5.267000;4.994000;4.977000;5.013000;4.813000;5.135000;4.905000;5.172000;4.896000;4.968000;4.861000;5.006000;4.823000;6.571000;6.436000;5.368000;6.525000
5.230000;5.190000;4.972000;4.995000;5.105000;4.895000;5.107000;5.073000;4.770000;4.772000;4.892000;5.005000;5.030000;5.083000;6.172000;6.209000;5.543000;6.465000
